#Frequency           Contrast
100.0                7.889868519220834
102.9                7.88837528195202
105.8                7.88685512227442
108.7                7.8861238326314975
111.6                7.8538320841262665
114.5                7.852237606260403
117.4                7.85061280327376
120.3                7.849859078070087
123.2                7.849154063443166
126.1                7.847489238408932
129.0                7.845788755612631
131.9                7.844051138533609
134.8                7.8432814602853425
137.7                7.84148356851763
140.6                7.8396443004856735
143.5                7.839002641020458
146.4                7.838214053451916
149.3                7.805648346089057
152.2                7.803713849065745
155.1                7.80173331923593
158.0                7.800879516020817
159.18367346939      7.800623333441058
160.9                7.798821189004236
163.8                7.798198119381393
166.7                7.796090015082875
169.6                7.7939306568115425
172.5                7.792993360726082
175.4                7.790746186415893
178.3                7.788444852055366
181.2                7.7860885011812355
184.1                7.786841939587103
187.0                7.784443516280405
189.9                7.781987966913653
192.8                7.749085458707889
195.7                7.747972821656488
198.6                7.7453821893116315
201.5                7.744777408735303
204.4                7.742121546653273
207.3                7.7394048523214645
210.2                7.738159537315756
213.1                7.735336562663283
216.0                7.732451230755103
218.36734693878      7.731954497707231
218.9                7.729503140233958
221.8                7.730499434550116
224.7                7.727497244366992
227.6                7.724431653024348
230.5                7.721301870146423
233.4                7.719795348373832
236.3                7.6864328073745805
239.2                7.683143343446439
242.1                7.682500697887803
245.0                7.67913624292607
247.9                7.677486664708843
250.8                7.674006157702439
253.7                7.670459299702779
256.6                7.666846011695284
259.5                7.665022346146144
262.4                7.664360721281921
265.3                7.6606190190134305
268.2                7.656810512883828
271.1                7.654865560171538
274.0                7.650939267635652
276.9                7.646946285548592
277.55102040816      7.646789339299384
279.8                7.646250941904776
282.7                7.612235768529376
285.6                7.6101278947064195
288.5                7.605949939526395
291.4                7.60170505450978
294.3                7.597393435561976
297.2                7.595105602019926
300.1                7.590676340456343
303.0                7.589914935942489
305.9                7.585405653638685
308.8                7.582991645927057
311.7                7.578365652318429
314.6                7.573674273992635
317.5                7.568917858884763
320.4                7.564096772486273
323.3                7.565518394679535
326.2                7.560632604609929
329.1                7.555682723971145
332.0                7.520852076796446
334.9                7.5180957259111105
336.73469387755      7.517551249409456
337.8                7.512976817097191
340.7                7.507795284681235
343.6                7.506904770482666
346.5                7.5040269035039335
349.4                7.498719881964636
352.3                7.493351707045919
355.2                7.487922954173513
358.1                7.482434198007207
361.0                7.5037246253447485
363.9                7.498123575837813
366.8                7.4971480659441125
369.7                7.491471963918594
372.6                7.488266723175512
375.5                7.482489580841137
378.4                7.446908954666665
381.3                7.441025861752654
384.2                7.437680539393583
387.1                7.431702046380226
390.0                7.425670253604578
392.9                7.424583054205091
395.8                7.418481351492426
395.91836734694      7.418436398411136
398.7                7.414997691967266
401.6                7.408806541348237
404.5                7.402565136551648
407.4                7.396273530025226
410.3                7.392664169938941
413.2                7.386284798680968
416.1                7.379854842669089
419.0                7.378658712176611
421.9                7.374954750172535
424.8                7.33879328887063
427.7                7.3322166267318725
430.6                7.325589097854249
433.5                7.318910613044409
436.4                7.315048654563617
439.3                7.308280433924549
442.2                7.301460843423504
445.1                7.294589753590205
448.0                7.29618199968327
450.9                7.289253207636634
453.8                7.28227256317905
455.10204081633      7.275999015213859
456.7                7.275239933265919
459.6                7.27114254146918
462.5                7.26401768070443
465.4                7.256840389033174
468.3                7.220192481147586
471.2                7.212925218317775
474.1                7.208662565470214
477.0                7.201301799201897
479.9                7.1998154758705
482.8                7.192382672790818
485.7                7.1880119692463165
488.6                7.180484509308824
491.5                7.172903570444548
494.4                7.1652689927509785
497.3                7.160753041559699
500.2                7.153022288876847
503.1                7.145237382672299
506.0                7.137398164911539
508.9                7.100325987248233
511.8                7.095635022719054
514.28571428571      7.094210255783667
514.7                7.087661267381143
517.6                7.079632667400246
520.5                7.0779317382967255
523.4                7.073124120140974
526.3                7.064976973596543
529.2                7.056774392554021
532.1                7.048516205886899
535.0                7.0435530009350416
537.9                7.035194155059567
540.8                7.0267791472031025
543.7                7.0183078014166576
546.6                7.009779938253324
549.5                7.00461175514925
552.4                6.990906078642211
555.3                6.982229363980768
558.2                6.973495437637642
561.1                6.968175721474992
564.0                6.959337586795561
566.9                6.950441642073827
569.8                6.941487696287493
572.7                6.932475556944185
573.4693877551       6.935467335877482
575.6                6.926940909370928
578.5                6.91782240772269
581.4                6.908645093687046
584.3                6.899408770456475
587.2                6.893702157354829
590.1                6.855729396727369
593.0                6.846345233785055
595.9                6.836901790667554
598.8                6.83103968380063
601.7                6.8214882482217885
604.6                6.81187771557902
607.5                6.802208164078164
610.4                6.7924796775091325
613.3                6.786395312075509
616.2                6.776559452518638
619.1                6.766664887111271
622.0                6.756711547712203
624.9                6.750454198712369
627.8                6.712039286107804
630.7                6.701940419371061
632.65306122449      6.700337487733009
633.6                6.691783288287284
636.5                6.685372951151544
639.4                6.675109562972109
642.3                6.66478816553257
645.2                6.654408861495606
648.1                6.64397175570893
651.0                6.637342798970007
653.9                6.62680027788091
656.8                6.616200240884892
659.7                6.605542779627863
662.6                6.570645829854869
665.5                6.559903879695812
668.4                6.54910490224044
671.3                6.538249014078488
674.2                6.5313019748600984
677.1                6.520342303677028
680.0                6.5093260612415405
682.9                6.498253375355202
685.8                6.487124375661721
688.7                6.4799644227000694
691.6                6.468732760060687
691.83673469388      6.460008708539608
694.5                6.444484497546069
697.4                6.433119080797215
700.3                6.425774579909705
703.2                6.41430785713706
706.1                6.402785918509358
709.0                6.391208926459463
711.9                6.383702836516814
714.8                6.3720255231074034
717.7                6.360293568060807
720.6                6.348507110345081
723.5                6.336666299900647
726.4                6.292474725960229
729.3                6.280523580814233
732.2                6.268518741771482
735.1                6.256460368879559
738.0                6.248580601356827
740.9                6.236424909645589
743.8                6.224216153198494
746.7                6.211954497926808
749.6                6.194768697466881
751.0204081632701    6.193198645629337
752.5                6.182379496084459
755.4                6.14260813694434
758.3                6.130136528978955
761.2                6.11761285719786
764.1                6.109374158156014
767.0                6.096755647507076
769.9                6.074721010765111
772.8                6.061967796464185
775.7                6.053547824134217
778.6                6.040700281835448
781.5                6.027801130024371
784.4                5.978266492666672
787.3                5.965256326471515
790.2                5.95663550938402
793.1                5.94353178297294
796.0                5.930376862322432
798.9                5.907494456474844
801.8                5.898691048277743
804.7                5.885363862231539
807.6                5.871984484633158
810.20408163265      5.8321118891437935
810.5                5.83173974899176
813.4                5.836055683405794
816.3                5.822516896692175
819.2                5.808927575384434
822.1                5.7952878029024175
825.0                5.77164249624559
827.9                5.7624659822727065
830.8                5.748654167259123
833.7                5.734792199023565
836.6                5.684253284696641
839.5                5.674924859232019
842.4                5.66091677879434
845.3                5.63668948001053
848.2                5.6225514593124
851.1                5.613051001420454
854.0                5.588554822058563
856.9                5.57424772961599
859.8                5.533590620570542
862.7                5.519209158625325
865.6                5.499140955524184
868.5                5.484640909111698
869.38775510204      5.4729579192421935
871.4                5.45964413379405
874.3                5.445017360862546
877.2                5.435129959307485
880.1                5.409868916532983
883.0                5.369034573869412
885.9                5.354217836252778
888.8                5.333560193080891
891.7                5.318626856939993
894.6                5.292951592441801
897.5                5.277893628163976
900.4                5.262787789648663
903.3                5.2159278237986415
906.2                5.200731673313102
909.1                5.174648809221119
912.0                5.159330402591031
914.9                5.160736161850811
917.8                5.145295862269978
920.7                5.118834649667034
923.6                5.07770244290897
926.5                5.051097300069977
928.57142857143      5.041749171606869
929.4                5.0404306629710245
932.3                5.013649785140275
935.2                4.997883222751006
938.1                4.970918982859365
941.0                4.960068578437298
943.9                4.907615708883801
946.8                4.891645764553089
949.7                4.864368243776239
952.6                4.842062413127856
955.5                4.825912406009601
958.4                4.798356767450099
961.3                4.7569942554730575
964.2                4.729303654116524
967.1                4.706639268580992
970.0                4.6902230466113926
972.9                4.6622599858236144
975.8                4.634192750911746
978.7                4.597907600255635
981.6                4.569717588924629
984.5                4.54142474418401
987.4                4.513029575119571
987.75510204082      4.512400542678289
990.3                4.501437945340221
993.2                4.472880899305256
996.1                4.419610339369567
999.0                4.390894053439069
1001.9               4.362077829040292
1004.8               4.350261463686557
1007.7               4.343704188827788
1010.6               4.29021191780339
1013.5               4.261072003626798
1016.4               4.237152949427054
1019.3               4.207825335648579
1022.2               4.178400722711712
1025.1               4.12469668383458
1028.0               4.095121683003583
1030.9               4.0708201292105
1033.8               4.041061655399815
1036.7               3.987208681566709
1039.6               3.957303746380984
1042.5               3.932716963275607
1045.4               3.9026311159882905
1046.9387755102      3.887378902584523
1048.3               3.84863548607501
1051.2               3.806130853703782
1054.1               3.781234037742673
1057.0               3.7507991720612135
1059.9               3.6966545945448064
1062.8               3.6536903410601904
1065.7               3.6229954466245275
1068.6               3.597714457691356
1071.5               3.5309569565723833
1074.4               3.500015084547508
1077.3               3.456448396585966
1080.2               3.40759701623131
1083.1               3.3638261354123316
1086.0               3.3325268438165607
1088.9               3.265412837755887
1091.8               3.248916782508002
1094.7               3.217342919071919
1097.6               3.150035039457891
1100.5               3.105550991815182
1103.4               3.060921735483127
1106.1224489796      2.9994422513528844
1106.3               2.9990540689580385
1109.2               2.9542016852659425
1112.1               2.873739114747834
1115.0               2.806114256804224
1117.9               2.766590052227774
1120.8               2.6859322307724027
1123.7               2.6181914481692057
1126.6               2.5374556247315665
1129.5               2.4566711404418675
1132.4               2.381546497309692
1135.3               2.3137288776050418
1138.2               2.2109496905212644
1141.1               2.130096139244991
1144.0               2.033232617832222
1146.9               1.93077291111176
1149.8               1.8284518114637156
1152.7               1.7393770340688095
1155.6               1.6217738825068757
1158.5               1.5199772756236622
1161.4               1.4102645555655346
1164.3               1.3088481174540059
1165.306122449       1.272337937939084
1167.2               1.1997030884830924
1170.1               1.105061853760878
1173.0               0.9965228471178454
1175.9               0.8752510686924585
1178.8               0.7673579023835834
1181.7               0.6655941691951195
1184.6               0.5583241345470927
1187.5               0.4513629853263976
1190.4               0.3447098350323246
1193.3               0.23836382726486752
1196.2               0.11810785832326888
1199.1               0.01246089052467063
1202.0               -0.11276402638910336
1204.9               -0.21771948842799213
1207.8               -0.3233447234010417
1210.7               -0.4276249609060316
1213.6               -0.5511462861429608
1216.5               -0.6614014644952407
1219.4               -0.765350479241331
1222.3               -0.8682161643905815
1224.4897959184      -0.9564470362129058
1225.2               -0.9772794897776339
1228.1               -1.085933747276249
1231.0               -1.206834995190902
1233.9               -1.3087284301072493
1236.8               -1.4161335167535365
1239.7               -1.5231369251039326
1242.6               -1.6089687996180544
1245.5               -1.7092581546538759
1248.4               -1.8026156708654073
1251.3               -1.9266100007686604
1254.2               -2.0316107506656484
1257.1               -2.1178836893935182
1260.0               -2.209794886425079
1262.9               -2.2890832536849373
1265.8               -2.3863367171479855
1268.7               -2.4650734002943997
1271.6               -2.537562009181939
1274.5               -2.633854849791454
1277.4               -2.711792893361435
1280.3               -2.807454824935049
1283.2               -2.8787910350319645
1283.6734693878      -2.8976088440971703
1286.1               -2.955936951957907
1289.0               -3.0506291761311477
1291.9               -3.1272313297237453
1294.8               -3.221253807357297
1297.7               -3.291304022256022
1300.6               -3.3847116306838494
1303.5               -3.460248896921584
1306.4               -3.535546224472791
1309.3               -3.62194573639603
1312.2               -3.6764926151324864
1315.1               -3.768369431849355
1318.0               -3.842635105044768
1320.9               -3.927772543239619
1323.8               -4.001515760038945
1326.7               -4.075024505476058
1329.6               -4.165372168752258
1332.5               -4.238367263350504
1335.4               -4.321954205335464
1338.3               -4.394435438623609
1341.2               -4.466686204993516
1342.8571428571      -4.51990057971604
1344.1               -4.538707560895708
1347.0               -4.621103864292115
1349.9               -4.692626668769463
1352.8               -4.763911817540098
1355.7               -4.83496868765829
1358.6               -4.922387007541377
1361.5               -4.986741603175455
1364.4               -5.057076580537703
1367.3               -5.12718810899307
1370.2               -5.197076828874664
1373.1               -5.260505227850985
1376.0               -5.3299466123076575
1378.9               -5.379416860204006
1381.8               -5.44843614934768
1384.7               -5.510967032525036
1387.6               -5.541977974943034
1390.5               -5.599767629197584
1393.4               -5.646768892408538
1396.3               -5.7042861123488
1399.2               -5.728725718285697
1402.0408163265      -5.785927088031364
1402.1               -5.786001455247945
1405.0               -5.816624326976471
1407.9               -5.863201850815597
1410.8               -5.887369650056907
1413.7               -5.933792129845195
1416.6               -5.974594674911148
1419.5               -6.020846054441805
1422.4               -6.0511501598158555
1425.3               -6.07502550448385
1428.2               -6.105245537526533
1431.1               -6.135426480324414
1434.0               -6.181365749157679
1436.9               -6.194865263382219
1439.8               -6.224933169861082
1442.7               -6.235501403602354
1445.6               -6.249759654425598
1448.5               -6.279736130343869
1451.4               -6.303195706605369
1454.3               -6.323092485291678
1457.2               -6.352971423462577
1460.1               -6.367142852571251
1461.2244897959      -6.373924122506312
1463.0               -6.38053173669206
1465.9               -6.394671192897687
1468.8               -6.424438623877445
1471.7               -6.428699721774802
1474.6               -6.4518705914737895
1477.5               -6.45615955193816
1480.4               -6.48585060350316
1483.3               -6.499911994572184
1486.2               -6.504239900887392
1489.1               -6.511677067150893
1492.0               -6.516031499453008
1494.9               -6.53006694865347
1497.8               -6.534455503233748
1500.7               -6.5225274569470955
1503.6               -6.526947183370244
1506.5               -6.54096282337963
1509.4               -6.545416000131638
1512.3               -6.559421260837373
1515.2               -6.557192544242434
1518.1               -6.555647270466465
1520.4081632653      -6.569249096721543
1521.0               -6.560160649835613
1523.9               -6.574147108599978
1526.8               -6.5564034381336365
1529.7               -6.57038163132121
1532.6               -6.559430921684397
1535.5               -6.573407896080612
1538.4               -6.555684559497369
1541.3               -6.569652921186347
1544.2               -6.558771118040761
1547.1               -6.557224639696627
1550.0               -6.57118688868181
1552.9               -6.553484637172091
1555.8               -6.551929582354014
1558.7               -6.521936384040407
1561.6               -6.520389618941161
1564.5               -6.502696370199586
1567.4               -6.516666539010821
1570.3               -6.515112499745566
1573.2               -6.504377290971243
1576.1               -6.487308282557648
1579.0               -6.469624869372591
1579.5918367347      -6.485401356205819
1581.9               -6.468076048130958
1584.8               -6.466524379154264
1587.7               -6.455853108661785
1590.6               -6.447279911478876
1593.5               -6.430189464577552
1596.4               -6.4195482693580805
1599.3               -6.417999929561396
1602.2               -6.4164488793410355
1605.1               -6.39226626519859
1608.0               -6.381664969527054
1610.9               -6.3645586710515385
1613.8               -6.363005387886742
1616.7               -6.3352069987727235
1619.6               -6.309083028927252
1622.5               -6.307532594058194
1625.4               -6.290409603501322
1628.3               -6.266087695818571
1631.2               -6.264526878669783
1634.1               -6.247382304732355
1637.0               -6.245819771653297
1638.7755102041      -6.228383728058
1639.9               -6.22866933549252
1642.8               -6.204258955752644
1645.7               -6.193761614292544
1648.6               -6.176595628623656
1651.5               -6.159423956278046
1654.4               -6.134938823794799
1657.3               -6.133371022754691
1660.2               -6.116179645020932
1663.1               -6.107870807287172
1666.0               -6.090663371513928
1668.9               -6.047030316525006
1671.8               -6.029804190852865
1674.7               -6.028223833051538
1677.6               -6.011023257259769
1680.5               -5.986342993428939
1683.4               -5.969093179504812
1686.3               -5.9518392700487315
1689.2               -5.943422048505029
1692.1               -5.92615380921959
1695.0               -5.901395684124765
1697.9               -5.884109190875178
1697.9591836735      -5.884116692721639
1700.8               -5.875643993027556
1703.7               -5.858343334650932
1706.6               -5.833498999412849
1709.5               -5.816180537531625
1712.4               -5.807667441071749
1715.3               -5.790335268552839
1718.2               -5.766080396536914
1721.1               -5.74112459703046
1724.0               -5.704758936735997
1726.9               -5.696192870459913
1729.8               -5.678814175329506
1732.7               -5.66258107337798
1735.6               -5.645179692474933
1738.5               -5.612008658551861
1741.4               -5.60338802182293
1744.3               -5.578256081180331
1747.2               -5.569608393257929
1750.1               -5.55216569104789
1753.0               -5.527709537271247
1755.9               -5.519035501088559
1757.1428571429      -5.502524181180282
1758.8               -5.493790961649323
1761.7               -5.485090124258179
1764.6               -5.451786082688688
1767.5               -5.443068070986939
1770.4               -5.42651237539828
1773.3               -5.390039239078875
1776.2               -5.36545715798018
1779.1               -5.347915019778577
1782.0               -5.339148491965387
1784.9               -5.322482494059154
1787.8               -5.297841512999641
1790.7               -5.280255961786415
1793.6               -5.271446943516508
1796.5               -5.238819266809169
1799.4               -5.229984916315315
1802.3               -5.212356791483193
1805.2               -5.187625387816388
1808.1               -5.178766515345959
1811.0               -5.1618894482254305
1813.9               -5.137114310000018
1816.3265306122      -5.128238465916011
1816.8               -5.119430180442368
1819.7               -5.09462305785615
1822.6               -5.058754462616588
1825.5               -5.049831513798522
1828.4               -5.024979600198916
1831.3               -5.016038790262401
1834.2               -5.007088132959102
1837.1               -4.974071493420213
1840.0               -4.965091978841231
1842.9               -4.940162560047366
1845.8               -4.922352782408699
1848.7               -4.90516706536922
1851.6               -4.880188385699389
1854.5               -4.871160534301275
1857.4               -4.846159955806946
1860.3               -4.83712349862876
1863.2               -4.8286565795330985
1866.1               -4.803623870024582
1869.0               -4.794555852125639
1871.9               -4.750664275549562
1874.8               -4.7332925366913425
1875.5102040816      -4.733231474746167
1877.7               -4.724198414588822
1880.6               -4.699102617505923
1883.5               -4.689994251063109
1886.4               -4.65652547391895
1889.3               -4.647393662606221
1892.2               -4.622238937073551
1895.1               -4.621954008575134
1898.0               -4.612799715668085
1900.9               -4.579207293691679
1903.8               -4.570029529618568
1906.7               -4.544814458407606
1909.6               -4.535622336640298
1912.5               -4.510801438018286
1915.4               -4.501585336944128
1918.3               -4.473592229547676
1921.2               -4.4483174977898505
1924.1               -4.4479822680784995
1927.0               -4.414162088776201
1929.9               -4.404904402191532
1932.8               -4.379576470714868
1934.693877551       -4.3793448492421065
1935.7               -4.379221590347833
1938.6               -4.345293984217837
1941.5               -4.335998702039557
1944.4               -4.326696302827284
1947.3               -4.310243402936658
1950.2               -4.300926420402885
1953.1               -4.2668757709526055
1956.0               -4.2664828730309345
1958.9               -4.241047936460287
1961.8               -4.231693656349809
1964.7               -4.203895522202434
1967.6               -4.178425399823077
1970.5               -4.178016865047899
1973.4               -4.152527859904252
1976.3               -4.143131530389007
1979.2               -4.117851339508214
1982.1               -4.108431238471942
1985.0               -4.082888796446838
1987.9               -4.082458026566321
1990.8               -4.064207934381269
1993.7               -4.047646903643582
1993.8775510204      -4.04761995380181
1996.6               -4.038184536227949
1999.5               -4.021618320011292
2002.4               -4.012142022692288
2005.3               -3.9866970097249665
2008.2               -3.9771982197079776
2011.1               -3.958112421354641
2014.0               -3.932471579127213
2016.9               -3.9140337591437424
2019.8               -3.897424334595683
2022.7               -3.8878857005309593
2025.6               -3.8712700769857515
2028.5               -3.8617176695897175
2031.4               -3.8522579338263068
2034.3               -3.835632198690093
2037.2               -3.8260493367031705
2040.1               -3.809417302046682
2043.0               -3.7907835655615156
2045.9               -3.774135670683691
2048.8               -3.7645163001515725
2051.7               -3.764017319786625
2053.0612244898      -3.729077668639302
2054.6               -3.719677380228072
2057.5               -3.7100878164460966
2060.4               -3.6934259462936967
2063.3               -3.6837668642992676
2066.2               -3.6832610736692746
2069.1               -3.648277876064644
2072.0               -3.6477621850021893
2074.9               -3.621898374482916
2077.8               -3.6213809076111065
2080.7               -3.6046959206062112
2083.6               -3.5857699933116294
2086.5               -3.5852415800828736
2089.4               -3.5685460260708615
2092.3               -3.558799091961647
2095.2               -3.53283396977652
2098.1               -3.504622408539833
2101.0               -3.504087298411331
2103.9               -3.4873697665020784
2106.8               -3.4775824747504713
2109.7               -3.4515465772998892
2112.2448979592      -3.451073010438398
2112.6               -3.45100689472792
2115.5               -3.4411918886684933
2118.4               -3.424466142923343
2121.3               -3.4145542290005975
2124.2               -3.397825786398576
2127.1               -3.3879741957473897
2130.0               -3.3874222237435103
2132.9               -3.3706933669596606
2135.8               -3.351389702058266
2138.7               -3.3324515853945074
2141.6               -3.315715570476657
2144.5               -3.3058184763685383
2147.4               -3.279596717199114
2150.3               -3.2790361447729386
2153.2               -3.278474734809505
2156.1               -3.252357065163456
2159.0               -3.2517942164925695
2161.9               -3.2416925688723586
2164.8               -3.2249429849017064
2167.7               -3.2149725784526457
2170.6               -3.1982163807122173
2171.4285714286      -3.1980541915295286
2173.5               -3.1880582363583216
2176.4               -3.187481452531121
2179.3               -3.1612921805961833
2182.2               -3.142430508391334
2185.1               -3.141855659219383
2188.0               -3.115461143684855
2190.9               -3.105422360033878
2193.8               -3.1048394999271407
2196.7               -3.088078755435204
2199.6               -3.077805398770386
2202.5               -3.0772190090146
2205.4               -3.0509589393639813
2208.3               -3.0503713208967476
2211.2               -3.0336072880989344
2214.1               -3.023269541720337
2217.0               -3.0226774908984484
2219.9               -2.996374624646037
2222.8               -2.977593234313639
2225.7               -2.9672062646093234
2228.6               -2.9504381372964135
2230.612244898       -2.9500293265841733
2231.5               -2.9498488739354087
2234.4               -2.9492589681863612
2237.3               -2.9229152657326973
2240.2               -2.912463735210248
2243.1               -2.911863990979205
2246.0               -2.8950990040183084
2248.9               -2.8945046799381724
2251.8               -2.884000009734292
2254.7               -2.8576029977871933
2257.6               -2.8569989817931223
2260.5               -2.8383000434942645
2263.4               -2.8215413978374344
2266.3               -2.8109849099817943
2269.2               -2.8103835944142115
2272.1               -2.8097816389078236
2275.0               -2.7833438431292103
2277.9               -2.7727288101849075
2280.8               -2.7721138679417674
2283.7               -2.755354450786146
2286.6               -2.7547486429298593
2289.5               -2.754141961851593
2289.7959183673      -2.7540800083814463
2292.4               -2.7273236333073103
2295.3               -2.726714583877919
2298.2               -2.7261048395210064
2301.1               -2.6816059994166803
2304.0               -2.6708859369531144
2306.9               -2.6702734493561473
2309.8               -2.669660503226164
2312.7               -2.6529200490139107
2315.6               -2.6523071093563177
2318.5               -2.6415268999222206
2321.4               -2.6247880635005982
2324.3               -2.6241776518409243
2327.2               -2.6235664928153892
2330.1               -2.606840625727598
2333.0               -2.5861524423153286
2335.9               -2.5855319737151934
2338.8               -2.567021135595254
2341.7               -2.550295219842223
2344.6               -2.5394123931514896
2347.5               -2.5387952228438104
2348.9795918367      -2.5384800936308736
2350.4               -2.522073175465524
2353.3               -2.5214616958422296
2356.2               -2.520849541803655
2359.1               -2.5099064984780544
2362.0               -2.4931952850586776
2364.9               -2.492580152806596
2367.8               -2.491964730807531
2370.7               -2.4809700171274573
2373.6               -2.4642675433975167
2376.5               -2.4458648000907988
2379.4               -2.4352707147294583
2382.3               -2.434652501501433
2385.2               -2.4075313670809684
2388.1               -2.4069118933941476
2391.0               -2.4062925125279713
2393.9               -2.389609190414694
2396.8               -2.3785258722899068
2399.7               -2.377953059097113
2402.6               -2.377227304577378
2405.5               -2.3605117546709615
2408.1632653061      -2.3599718092093314
2408.4               -2.359922176524959
2411.3               -2.348775312188136
2414.2               -2.3304782452441746
2417.1               -2.313817236894021
2420.0               -2.31320540870349
2422.9               -2.302017967651129
2425.8               -2.301407829487575
2428.7               -2.284758851656086
2431.6               -2.2841462728446027
2434.5               -2.2835329783654137
2437.4               -2.2722887607500684
2440.3               -2.255650136988491
2443.2               -2.2550328355532385
2446.1               -2.254416273974773
2449.0               -2.2538057913341207
2451.9               -2.224918033936907
2454.8               -2.2082654927848493
2457.7               -2.2076857705356265
2460.6               -2.207022404357531
2463.5               -2.195706534324485
2466.4               -2.179100432443027
2467.3469387755      -2.178899211703734
2469.3               -2.1784837083547806
2472.2               -2.1778652062706256
2475.1               -2.1772392478499496
2478.0               -2.149857120520491
2480.9               -2.149221215059361
2483.8               -2.1485999530214994
2486.7               -2.147929216729509
2489.6               -2.118995781793826
2492.5               -2.1024710351318183
2495.4               -2.101900817376268
2498.3               -2.1013144627381117
2501.2               -2.100713272247283
2504.1               -2.08922980186169
2507.0               -2.072671727815343
2509.9               -2.07204824317694
2512.8               -2.0714197709518247
2515.7               -2.059879431613649
2518.6               -2.0433290509121047
2521.5               -2.0427048187530423
2524.4               -2.0247281818474483
2526.5306122449      -2.0242708500742372
2527.3               -2.0241089310472424
2530.2               -2.012529742021408
2533.1               -1.9960099085680982
2536.0               -1.995395303662666
2538.9               -1.9947816502245441
2541.8               -1.9936212632974726
2544.7               -1.9930046115651063
2547.6               -1.9765230501481155
2550.5               -1.975914842010122
2553.4               -1.9753045188143636
2556.3               -1.9636282265743548
2559.2               -1.9457677353064449
2562.1               -1.9451488103204337
2565.0               -1.9286876769782446
2567.9               -1.9280743193821008
2570.8               -1.9163532180098966
2573.7               -1.9157360864153499
2576.6               -1.915122895062259
2579.5               -1.8986789575945409
2582.4               -1.8868882729065075
2585.3               -1.886238915835089
2585.7142857143      -1.8861463611815412
2588.2               -1.8855930837799355
2591.1               -1.884951644905215
2594.0               -1.8685139337026635
2596.9               -1.8501912337698743
2599.8               -1.849562210923749
2602.7               -1.8489277292643265
2605.6               -1.8482843394127146
2608.5               -1.8363843857195117
2611.4               -1.8199396357477602
2614.3               -1.8192244872766903
2617.2               -1.8183249199276863
2620.1               -1.8185133556580064
2623.0               -1.8068284659935228
2625.9               -1.8061050868124997
2628.8               -1.7727010883408512
2631.7               -1.7720892021375192
2634.6               -1.7714746744610899
2637.5               -1.7595498871568565
2640.4               -1.769663129864885
2643.3               -1.7690456870088531
2644.8979591837      -1.7530005472743289
2646.2               -1.7527257569673032
2649.1               -1.7407321892432661
2652.0               -1.740110276389383
2654.9               -1.7394852565793704
2657.8               -1.7388648655530161
2660.7               -1.7382427645083318
2663.6               -1.6936215486635142
2666.5               -1.693007960054543
2669.4               -1.6923946875004812
2672.3               -1.691781583736323
2675.2               -1.6905660504472446
2678.1               -1.689970293414138
2681.0               -1.6900948357741024
2683.9               -1.6733015013614192
2686.8               -1.6726030221451997
2689.7               -1.6604527927846868
2692.6               -1.6598354242598294
2695.5               -1.6592246290263093
2698.4               -1.641834394789068
2701.3               -1.6256314190223589
2704.0816326531003   -1.613490711507757
2704.2               -1.6134656722707743
2707.1               -1.6238112028043488
2710.0               -1.6232008678813672
2712.9               -1.622596765991707
2715.8               -1.6103888570277474
2718.7               -1.6097762280619292
2721.6               -1.6091432431521533
2724.5               -1.5930220444637453
2727.4               -1.5924343978888906
2730.3               -1.5635128941641443
2733.2               -1.5629118779606537
2736.1               -1.573358026250524
2739.0               -1.5727631665223298
2741.9               -1.5604809803435933
2744.8               -1.5443718377240017
2747.7               -1.5437782726040246
2750.6               -1.5431848699610722
2753.5               -1.542591611796579
2756.4               -1.530261169229153
2759.3               -1.5296611863790606
2762.2               -1.5290609643384165
2763.2653061224      -1.5234153707759972
2765.1               -1.523043840225341
2768.0               -1.507000267398492
2770.9               -1.4946414389701401
2773.8               -1.4940526410674473
2776.7               -1.4934634030912113
2779.6               -1.4928739475961168
2782.5               -1.4804662204603565
2785.4               -1.4798698971775328
2788.3               -1.4904712115029506
2791.2               -1.4744783672569817
2794.1               -1.473895004293265
2797.0               -1.4450177188957087
2799.9               -1.4444349429933718
2802.8               -1.4438519743328146
2805.7               -1.4432687523489294
2808.6               -1.4426852620461823
2811.5               -1.4301966162513267
2814.4               -1.425528870877361
2817.3               -1.424951199581409
2820.2               -1.4243731027760504
2822.4489795918      -1.411980197406091
2823.1               -1.4118487137955111
2826.0               -1.4112605066968942
2828.9               -1.3943626387556545
2831.8               -1.3937853419401285
2834.7               -1.3932071590832895
2837.6               -1.3919883857923905
2840.5               -1.3914088571163665
2843.4               -1.375545406655994
2846.3               -1.3749729485160591
2849.2               -1.374400138558517
2852.1               -1.3617960876661515
2855.0               -1.3612160989148507
2857.9               -1.3606358075095695
2860.8               -1.3552636981965023
2863.7               -1.3426358384611952
2866.6               -1.3420617972590825
2869.5               -1.3262638123714752
2872.4               -1.3256968443145984
2875.3               -1.3251295816333342
2878.2               -1.312453564834574
2881.1               -1.3118792479962755
2881.6326530612      -1.3232486421273317
2884.0               -1.3227842502829772
2886.9               -1.3222151107608615
2889.8               -1.3094993604559477
2892.7               -1.2928435698845844
2895.6               -1.2922751172414073
2898.5               -1.2917063907741033
2901.4               -1.275989771297377
2904.3               -1.2747864475953519
2907.2               -1.2742239485049422
2910.1               -1.273661182917972
2913.0               -1.2730981573270532
2915.9               -1.272534870548166
2918.8               -1.2597425812199416
2921.7               -1.2591724099779102
2924.6               -1.2542314878683618
2927.5               -1.2536745183006717
2930.4               -1.2408601926367615
2933.3               -1.2252338391431303
2936.2               -1.224677587393062
2939.1               -1.2241210668728122
2940.8163265306      -1.2237915961231016
2942.0               -1.2235643344936598
2944.9               -1.2223598320515623
2947.8               -1.221801987086009
2950.7               -1.2212439451836408
2953.6               -1.2048289947327644
2956.5               -1.2042785631368305
2959.4               -1.19138997001975
2962.3               -1.1908327374655199
2965.2               -1.2019825104856474
2968.1               -1.2014301696517296
2971.0               -1.173542126392521
2973.9               -1.1729905102352924
2976.8               -1.1724385018935282
2979.7               -1.1718861465913357
2982.6               -1.1713335981318405
2985.5               -1.1543991896236048
2988.4               -1.1538540200031289
2991.3               -1.1533087833716182
2994.2               -1.152763495277229
2997.1               -1.1522178631445639
3000.0               -1.1392163413248628
