#id      FTS_PINT
#Xmin    -0.005
#Xmax    0.005
#Xstep   2e-05
#Tdwell  0.4
#time    1506135235
#Nscans  501
#data    501
-0.00500000 0.0536654
-0.00498000 0.0534365
-0.00496000 0.0532839
-0.00494000 0.0533488
-0.00492000 0.0536273
-0.00490000 0.0539477
-0.00488000 0.0540621
-0.00486000 0.0539095
-0.00484000 0.0536578
-0.00482000 0.0534785
-0.00480000 0.0533946
-0.00478000 0.0534594
-0.00476000 0.0535815
-0.00474000 0.0536311
-0.00472000 0.0536578
-0.00470000 0.0536463
-0.00468000 0.0536540
-0.00466000 0.0537188
-0.00464000 0.0538447
-0.00462000 0.0539477
-0.00460000 0.0539057
-0.00458000 0.0537035
-0.00456000 0.0534403
-0.00454000 0.0533106
-0.00452000 0.0533984
-0.00450000 0.0536463
-0.00448000 0.0538561
-0.00446000 0.0539477
-0.00444000 0.0539591
-0.00442000 0.0538905
-0.00440000 0.0537531
-0.00438000 0.0535967
-0.00436000 0.0535014
-0.00434000 0.0535166
-0.00432000 0.0537150
-0.00430000 0.0539172
-0.00428000 0.0539706
-0.00426000 0.0538256
-0.00424000 0.0536311
-0.00422000 0.0535014
-0.00420000 0.0535853
-0.00418000 0.0537798
-0.00416000 0.0539324
-0.00414000 0.0539248
-0.00412000 0.0538218
-0.00410000 0.0537570
-0.00408000 0.0537722
-0.00406000 0.0538714
-0.00404000 0.0539286
-0.00402000 0.0538599
-0.00400000 0.0536768
-0.00398000 0.0535128
-0.00396000 0.0534556
-0.00394000 0.0535052
-0.00392000 0.0536807
-0.00390000 0.0538943
-0.00388000 0.0541003
-0.00386000 0.0541728
-0.00384000 0.0541384
-0.00382000 0.0540011
-0.00380000 0.0538332
-0.00378000 0.0536845
-0.00376000 0.0535433
-0.00374000 0.0534403
-0.00372000 0.0534708
-0.00370000 0.0537035
-0.00368000 0.0540812
-0.00366000 0.0543063
-0.00364000 0.0542109
-0.00362000 0.0539057
-0.00360000 0.0536387
-0.00358000 0.0535738
-0.00356000 0.0537646
-0.00354000 0.0539668
-0.00352000 0.0540164
-0.00350000 0.0539477
-0.00348000 0.0538256
-0.00346000 0.0537646
-0.00344000 0.0538142
-0.00342000 0.0539095
-0.00340000 0.0539629
-0.00338000 0.0539553
-0.00336000 0.0538676
-0.00334000 0.0538065
-0.00332000 0.0538447
-0.00330000 0.0539858
-0.00328000 0.0541155
-0.00326000 0.0542147
-0.00324000 0.0541880
-0.00322000 0.0539935
-0.00320000 0.0537264
-0.00318000 0.0535014
-0.00316000 0.0534289
-0.00314000 0.0536501
-0.00312000 0.0539896
-0.00310000 0.0542681
-0.00308000 0.0543749
-0.00306000 0.0543177
-0.00304000 0.0542376
-0.00302000 0.0541461
-0.00300000 0.0539858
-0.00298000 0.0537531
-0.00296000 0.0535548
-0.00294000 0.0535014
-0.00292000 0.0537074
-0.00290000 0.0540164
-0.00288000 0.0542223
-0.00286000 0.0542109
-0.00284000 0.0541003
-0.00282000 0.0540545
-0.00280000 0.0541079
-0.00278000 0.0542529
-0.00276000 0.0543063
-0.00274000 0.0541461
-0.00272000 0.0538828
-0.00270000 0.0536654
-0.00268000 0.0537035
-0.00266000 0.0539896
-0.00264000 0.0542910
-0.00262000 0.0543597
-0.00260000 0.0541079
-0.00258000 0.0537150
-0.00256000 0.0535090
-0.00254000 0.0536692
-0.00252000 0.0541613
-0.00250000 0.0547335
-0.00248000 0.0549738
-0.00246000 0.0546763
-0.00244000 0.0540583
-0.00242000 0.0535014
-0.00240000 0.0533793
-0.00238000 0.0536997
-0.00236000 0.0540812
-0.00234000 0.0541804
-0.00232000 0.0540545
-0.00230000 0.0539668
-0.00228000 0.0541613
-0.00226000 0.0545046
-0.00224000 0.0547297
-0.00222000 0.0546038
-0.00220000 0.0542643
-0.00218000 0.0539172
-0.00216000 0.0537112
-0.00214000 0.0536883
-0.00212000 0.0538142
-0.00210000 0.0539744
-0.00208000 0.0541613
-0.00206000 0.0543330
-0.00204000 0.0544245
-0.00202000 0.0544512
-0.00200000 0.0544436
-0.00198000 0.0543444
-0.00196000 0.0541575
-0.00194000 0.0539668
-0.00192000 0.0538638
-0.00190000 0.0540049
-0.00188000 0.0543139
-0.00186000 0.0545695
-0.00184000 0.0545275
-0.00182000 0.0541461
-0.00180000 0.0536273
-0.00178000 0.0534518
-0.00176000 0.0537570
-0.00174000 0.0543330
-0.00172000 0.0549052
-0.00170000 0.0550654
-0.00168000 0.0548670
-0.00166000 0.0545390
-0.00164000 0.0542796
-0.00162000 0.0539896
-0.00160000 0.0537074
-0.00158000 0.0535815
-0.00156000 0.0536234
-0.00154000 0.0540125
-0.00152000 0.0544245
-0.00150000 0.0545046
-0.00148000 0.0544016
-0.00146000 0.0544245
-0.00144000 0.0546877
-0.00142000 0.0550082
-0.00140000 0.0550387
-0.00138000 0.0544589
-0.00136000 0.0536540
-0.00134000 0.0531619
-0.00132000 0.0533412
-0.00130000 0.0540774
-0.00128000 0.0548213
-0.00126000 0.0551150
-0.00124000 0.0548480
-0.00122000 0.0543215
-0.00120000 0.0539629
-0.00118000 0.0538943
-0.00116000 0.0541842
-0.00114000 0.0545466
-0.00112000 0.0547907
-0.00110000 0.0547755
-0.00108000 0.0544970
-0.00106000 0.0540850
-0.00104000 0.0538447
-0.00102000 0.0539248
-0.001000000 0.0541766
-0.000980000 0.0543406
-0.000960000 0.0543559
-0.000940000 0.0542681
-0.000920000 0.0543444
-0.000900000 0.0546191
-0.000880000 0.0550044
-0.000860000 0.0551684
-0.000840000 0.0549319
-0.000820000 0.0545352
-0.000800000 0.0541461
-0.000780000 0.0537455
-0.000760000 0.0534327
-0.000740000 0.0534136
-0.000720000 0.0537684
-0.000700000 0.0546076
-0.000680000 0.0555041
-0.000660000 0.0557368
-0.000640000 0.0551836
-0.000620000 0.0543444
-0.000600000 0.0538714
-0.000580000 0.0540621
-0.000560000 0.0545046
-0.000540000 0.0544360
-0.000520000 0.0539629
-0.000500000 0.0536730
-0.000480000 0.0539629
-0.000460000 0.0547945
-0.000440000 0.0554888
-0.000420000 0.0554507
-0.000400000 0.0548632
-0.000380000 0.0541461
-0.000360000 0.0537570
-0.000340000 0.0540125
-0.000320000 0.0545123
-0.000300000 0.0547450
-0.000280000 0.0544207
-0.000260000 0.0537913
-0.000240000 0.0535815
-0.000220000 0.0545962
-0.000200000 0.0564196
-0.000180000 0.0577891
-0.000160000 0.0579760
-0.000140000 0.0565760
-0.000120000 0.0540812
-1.00000e-04 0.0511973
-8.00000e-05 0.0479052
-6.00000e-05 0.0452082
-4.00000e-05 0.0460055
-2.00000e-05 0.0515864
0.00000 0.0605242
2.00000e-05 0.0679097
4.00000e-05 0.0689893
6.00000e-05 0.0627103
8.00000e-05 0.0540125
1.00000e-04 0.0478060
0.000120000 0.0463717
0.000140000 0.0486224
0.000160000 0.0514948
0.000180000 0.0536921
0.000200000 0.0555308
0.000220000 0.0569155
0.000240000 0.0572131
0.000260000 0.0561221
0.000280000 0.0543559
0.000300000 0.0533144
0.000320000 0.0538027
0.000340000 0.0549777
0.000360000 0.0554965
0.000380000 0.0550463
0.000400000 0.0540698
0.000420000 0.0535281
0.000440000 0.0540278
0.000460000 0.0550311
0.000480000 0.0558970
0.000500000 0.0561030
0.000520000 0.0552332
0.000540000 0.0541193
0.000560000 0.0536311
0.000580000 0.0538828
0.000600000 0.0545847
0.000620000 0.0549090
0.000640000 0.0543826
0.000660000 0.0538485
0.000680000 0.0542414
0.000700000 0.0552599
0.000720000 0.0561717
0.000740000 0.0562708
0.000760000 0.0553210
0.000780000 0.0542147
0.000800000 0.0536654
0.000820000 0.0536311
0.000840000 0.0538599
0.000860000 0.0541766
0.000880000 0.0545313
0.000900000 0.0550463
0.000920000 0.0554926
0.000940000 0.0555384
0.000960000 0.0552332
0.000980000 0.0547984
0.001000000 0.0546114
0.00102000 0.0547945
0.00104000 0.0549052
0.00106000 0.0546954
0.00108000 0.0543749
0.00110000 0.0541461
0.00112000 0.0542719
0.00114000 0.0547831
0.00116000 0.0551989
0.00118000 0.0553210
0.00120000 0.0550578
0.00122000 0.0546229
0.00124000 0.0542986
0.00126000 0.0543559
0.00128000 0.0547869
0.00130000 0.0554049
0.00132000 0.0558245
0.00134000 0.0556490
0.00136000 0.0548289
0.00138000 0.0538561
0.00140000 0.0534365
0.00142000 0.0537417
0.00144000 0.0546687
0.00146000 0.0555384
0.00148000 0.0557444
0.00150000 0.0554240
0.00152000 0.0550997
0.00154000 0.0550196
0.00156000 0.0551264
0.00158000 0.0551112
0.00160000 0.0547678
0.00162000 0.0543025
0.00164000 0.0541422
0.00166000 0.0543215
0.00168000 0.0545809
0.00170000 0.0548213
0.00172000 0.0550349
0.00174000 0.0553362
0.00176000 0.0556643
0.00178000 0.0556147
0.00180000 0.0551188
0.00182000 0.0544322
0.00184000 0.0540965
0.00186000 0.0543482
0.00188000 0.0549891
0.00190000 0.0554545
0.00192000 0.0553935
0.00194000 0.0549967
0.00196000 0.0545580
0.00198000 0.0543940
0.00200000 0.0545924
0.00202000 0.0549052
0.00204000 0.0551379
0.00206000 0.0552638
0.00208000 0.0552790
0.00210000 0.0552790
0.00212000 0.0552599
0.00214000 0.0551188
0.00216000 0.0548518
0.00218000 0.0545809
0.00220000 0.0543559
0.00222000 0.0543520
0.00224000 0.0546191
0.00226000 0.0550349
0.00228000 0.0554125
0.00230000 0.0556147
0.00232000 0.0554659
0.00234000 0.0551875
0.00236000 0.0550120
0.00238000 0.0550463
0.00240000 0.0551417
0.00242000 0.0550234
0.00244000 0.0546267
0.00246000 0.0541880
0.00248000 0.0542262
0.00250000 0.0548632
0.00252000 0.0556376
0.00254000 0.0560305
0.00256000 0.0558512
0.00258000 0.0552371
0.00260000 0.0546381
0.00262000 0.0544436
0.00264000 0.0546992
0.00266000 0.0551417
0.00268000 0.0554812
0.00270000 0.0554469
0.00272000 0.0551264
0.00274000 0.0547526
0.00276000 0.0546305
0.00278000 0.0547984
0.00280000 0.0550616
0.00282000 0.0552447
0.00284000 0.0552447
0.00286000 0.0552065
0.00288000 0.0552371
0.00290000 0.0553744
0.00292000 0.0554583
0.00294000 0.0553973
0.00296000 0.0551875
0.00298000 0.0548823
0.00300000 0.0546229
0.00302000 0.0546191
0.00304000 0.0548136
0.00306000 0.0550730
0.00308000 0.0552943
0.00310000 0.0554583
0.00312000 0.0555804
0.00314000 0.0556376
0.00316000 0.0555613
0.00318000 0.0552332
0.00320000 0.0548594
0.00322000 0.0546381
0.00324000 0.0546572
0.00326000 0.0549624
0.00328000 0.0552714
0.00330000 0.0554240
0.00332000 0.0554545
0.00334000 0.0553744
0.00336000 0.0552866
0.00338000 0.0552027
0.00340000 0.0551112
0.00342000 0.0550921
0.00344000 0.0551684
0.00346000 0.0552714
0.00348000 0.0553172
0.00350000 0.0552447
0.00352000 0.0551646
0.00354000 0.0551569
0.00356000 0.0552332
0.00358000 0.0552981
0.00360000 0.0552752
0.00362000 0.0551646
0.00364000 0.0550539
0.00366000 0.0550997
0.00368000 0.0553591
0.00370000 0.0556147
0.00372000 0.0556910
0.00374000 0.0555270
0.00376000 0.0552180
0.00378000 0.0549777
0.00380000 0.0548861
0.00382000 0.0549204
0.00384000 0.0550616
0.00386000 0.0552256
0.00388000 0.0554202
0.00390000 0.0556414
0.00392000 0.0557330
0.00394000 0.0556719
0.00396000 0.0554812
0.00398000 0.0552371
0.00400000 0.0550616
0.00402000 0.0550272
0.00404000 0.0550883
0.00406000 0.0552027
0.00408000 0.0553477
0.00410000 0.0554011
0.00412000 0.0553973
0.00414000 0.0553744
0.00416000 0.0553896
0.00418000 0.0554430
0.00420000 0.0554812
0.00422000 0.0554545
0.00424000 0.0553896
0.00426000 0.0553133
0.00428000 0.0552905
0.00430000 0.0553553
0.00432000 0.0554469
0.00434000 0.0555613
0.00436000 0.0555193
0.00438000 0.0553515
0.00440000 0.0551951
0.00442000 0.0550997
0.00444000 0.0551913
0.00446000 0.0553858
0.00448000 0.0556109
0.00450000 0.0557787
0.00452000 0.0557787
0.00454000 0.0556490
0.00456000 0.0554240
0.00458000 0.0551951
0.00460000 0.0550921
0.00462000 0.0551341
0.00464000 0.0553095
0.00466000 0.0555003
0.00468000 0.0556605
0.00470000 0.0556757
0.00472000 0.0556490
0.00474000 0.0555460
0.00476000 0.0554621
0.00478000 0.0554011
0.00480000 0.0554049
0.00482000 0.0554125
0.00484000 0.0554278
0.00486000 0.0553591
0.00488000 0.0553286
0.00490000 0.0554545
0.00492000 0.0556529
0.00494000 0.0557978
0.00496000 0.0557826
0.00498000 0.0555537
0.00500000 0.0553210
