#id      FTS_PINT
#Xmin    -0.005
#Xmax    0.005
#Xstep   2e-05
#Tdwell  0.4
#time    1501121381
#Nscans  501
#data    501
-0.00500000 0.0438921
-0.00498000 0.0435259
-0.00496000 0.0432589
-0.00494000 0.0433581
-0.00492000 0.0437014
-0.00490000 0.0440676
-0.00488000 0.0442050
-0.00486000 0.0440600
-0.00484000 0.0437777
-0.00482000 0.0435717
-0.00480000 0.0436251
-0.00478000 0.0437167
-0.00476000 0.0437243
-0.00474000 0.0437396
-0.00472000 0.0438006
-0.00470000 0.0437777
-0.00468000 0.0436862
-0.00466000 0.0437319
-0.00464000 0.0439303
-0.00462000 0.0441058
-0.00460000 0.0441287
-0.00458000 0.0439150
-0.00456000 0.0435717
-0.00454000 0.0434115
-0.00452000 0.0435183
-0.00450000 0.0437319
-0.00448000 0.0439532
-0.00446000 0.0440447
-0.00444000 0.0440524
-0.00442000 0.0440142
-0.00440000 0.0438540
-0.00438000 0.0436480
-0.00436000 0.0435717
-0.00434000 0.0435946
-0.00432000 0.0437472
-0.00430000 0.0440981
-0.00428000 0.0442507
-0.00426000 0.0440066
-0.00424000 0.0436938
-0.00422000 0.0435870
-0.00420000 0.0436404
-0.00418000 0.0438693
-0.00416000 0.0440371
-0.00414000 0.0440447
-0.00412000 0.0439684
-0.00410000 0.0438235
-0.00408000 0.0437624
-0.00406000 0.0439227
-0.00404000 0.0440753
-0.00402000 0.0439990
-0.00400000 0.0438998
-0.00398000 0.0437777
-0.00396000 0.0436404
-0.00394000 0.0437243
-0.00392000 0.0438464
-0.00390000 0.0439379
-0.00388000 0.0440753
-0.00386000 0.0442584
-0.00384000 0.0442278
-0.00382000 0.0440447
-0.00380000 0.0439608
-0.00378000 0.0439608
-0.00376000 0.0438159
-0.00374000 0.0435870
-0.00372000 0.0434954
-0.00370000 0.0437243
-0.00368000 0.0441592
-0.00366000 0.0445178
-0.00364000 0.0444643
-0.00362000 0.0440447
-0.00360000 0.0436251
-0.00358000 0.0435488
-0.00356000 0.0438464
-0.00354000 0.0441821
-0.00352000 0.0442507
-0.00350000 0.0440371
-0.00348000 0.0438387
-0.00346000 0.0437777
-0.00344000 0.0438845
-0.00342000 0.0441592
-0.00340000 0.0442202
-0.00338000 0.0440218
-0.00336000 0.0438998
-0.00334000 0.0438769
-0.00332000 0.0439379
-0.00330000 0.0440676
-0.00328000 0.0441897
-0.00326000 0.0442736
-0.00324000 0.0443118
-0.00322000 0.0442965
-0.00320000 0.0440600
-0.00318000 0.0436633
-0.00316000 0.0433810
-0.00314000 0.0435641
-0.00312000 0.0440524
-0.00310000 0.0444262
-0.00308000 0.0444720
-0.00306000 0.0443804
-0.00304000 0.0442431
-0.00302000 0.0442584
-0.00300000 0.0442736
-0.00298000 0.0439761
-0.00296000 0.0436404
-0.00294000 0.0436480
-0.00292000 0.0439150
-0.00290000 0.0442431
-0.00288000 0.0444338
-0.00286000 0.0443270
-0.00284000 0.0441439
-0.00282000 0.0440524
-0.00280000 0.0440753
-0.00278000 0.0442584
-0.00276000 0.0444415
-0.00274000 0.0443499
-0.00272000 0.0440066
-0.00270000 0.0436938
-0.00268000 0.0436862
-0.00266000 0.0441287
-0.00264000 0.0445406
-0.00262000 0.0445788
-0.00260000 0.0442584
-0.00258000 0.0437243
-0.00256000 0.0434115
-0.00254000 0.0436785
-0.00252000 0.0442889
-0.00250000 0.0448916
-0.00248000 0.0452654
-0.00246000 0.0449069
-0.00244000 0.0439303
-0.00242000 0.0431902
-0.00240000 0.0432513
-0.00238000 0.0439532
-0.00236000 0.0445330
-0.00234000 0.0445712
-0.00232000 0.0440905
-0.00230000 0.0437777
-0.00228000 0.0441210
-0.00226000 0.0446398
-0.00224000 0.0447848
-0.00222000 0.0446093
-0.00220000 0.0442965
-0.00218000 0.0439913
-0.00216000 0.0438998
-0.00214000 0.0438159
-0.00212000 0.0437777
-0.00210000 0.0439608
-0.00208000 0.0442202
-0.00206000 0.0444415
-0.00204000 0.0445330
-0.00202000 0.0445559
-0.00200000 0.0444491
-0.00198000 0.0443881
-0.00196000 0.0442660
-0.00194000 0.0439913
-0.00192000 0.0438616
-0.00190000 0.0440447
-0.00188000 0.0443881
-0.00186000 0.0447390
-0.00184000 0.0447772
-0.00182000 0.0443728
-0.00180000 0.0437701
-0.00178000 0.0433733
-0.00176000 0.0436404
-0.00174000 0.0443499
-0.00172000 0.0449450
-0.00170000 0.0450976
-0.00168000 0.0448153
-0.00166000 0.0444109
-0.00164000 0.0442278
-0.00162000 0.0443423
-0.00160000 0.0440981
-0.00158000 0.0434573
-0.00156000 0.0435488
-0.00154000 0.0442278
-0.00152000 0.0446093
-0.00150000 0.0448000
-0.00148000 0.0444415
-0.00146000 0.0439074
-0.00144000 0.0443118
-0.00142000 0.0452044
-0.00140000 0.0454257
-0.00138000 0.0447772
-0.00136000 0.0436785
-0.00134000 0.0429995
-0.00132000 0.0432589
-0.00130000 0.0442431
-0.00128000 0.0451968
-0.00126000 0.0453570
-0.00124000 0.0449145
-0.00122000 0.0442202
-0.00120000 0.0438159
-0.00118000 0.0439303
-0.00116000 0.0441058
-0.00114000 0.0444415
-0.00112000 0.0450137
-0.00110000 0.0450366
-0.00108000 0.0445178
-0.00106000 0.0441210
-0.00104000 0.0438311
-0.00102000 0.0437853
-0.001000000 0.0441897
-0.000980000 0.0446398
-0.000960000 0.0445559
-0.000940000 0.0441210
-0.000920000 0.0440524
-0.000900000 0.0446627
-0.000880000 0.0451510
-0.000860000 0.0451357
-0.000840000 0.0450289
-0.000820000 0.0445178
-0.000800000 0.0439990
-0.000780000 0.0441058
-0.000760000 0.0439456
-0.000740000 0.0431979
-0.000720000 0.0433352
-0.000700000 0.0444949
-0.000680000 0.0456469
-0.000660000 0.0462573
-0.000640000 0.0455477
-0.000620000 0.0437090
-0.000600000 0.0431826
-0.000580000 0.0441821
-0.000560000 0.0450976
-0.000540000 0.0450213
-0.000520000 0.0439532
-0.000500000 0.0430758
-0.000480000 0.0437014
-0.000460000 0.0449831
-0.000440000 0.0456698
-0.000420000 0.0456774
-0.000400000 0.0448458
-0.000380000 0.0439379
-0.000360000 0.0437930
-0.000340000 0.0440218
-0.000320000 0.0443575
-0.000300000 0.0451586
-0.000280000 0.0452654
-0.000260000 0.0438235
-0.000240000 0.0426028
-0.000220000 0.0431902
-0.000200000 0.0456545
-0.000180000 0.0484164
-0.000160000 0.0483019
-0.000140000 0.0460894
-0.000120000 0.0449221
-1.00000e-04 0.0432742
-8.00000e-05 0.0407183
-6.00000e-05 0.0376894
-4.00000e-05 0.0343783
-2.00000e-05 0.0371783
0.00000 0.0485384
2.00000e-05 0.0590975
4.00000e-05 0.0602572
6.00000e-05 0.0525515
8.00000e-05 0.0416110
1.00000e-04 0.0356982
0.000120000 0.0371935
0.000140000 0.0410922
0.000160000 0.0430377
0.000180000 0.0436404
0.000200000 0.0448382
0.000220000 0.0472033
0.000240000 0.0485003
0.000260000 0.0462420
0.000280000 0.0428240
0.000300000 0.0422518
0.000320000 0.0436862
0.000340000 0.0456316
0.000360000 0.0465395
0.000380000 0.0452044
0.000400000 0.0436251
0.000420000 0.0431216
0.000440000 0.0434268
0.000460000 0.0447543
0.000480000 0.0460970
0.000500000 0.0463870
0.000520000 0.0457995
0.000540000 0.0441744
0.000560000 0.0426867
0.000580000 0.0436099
0.000600000 0.0454180
0.000620000 0.0454714
0.000640000 0.0443499
0.000660000 0.0433657
0.000680000 0.0432360
0.000700000 0.0451586
0.000720000 0.0471499
0.000740000 0.0464785
0.000760000 0.0449221
0.000780000 0.0439684
0.000800000 0.0434802
0.000820000 0.0438464
0.000840000 0.0442584
0.000860000 0.0441439
0.000880000 0.0443118
0.000900000 0.0449221
0.000920000 0.0456698
0.000940000 0.0459063
0.000960000 0.0449908
0.000980000 0.0442050
0.001000000 0.0444567
0.00102000 0.0447848
0.00104000 0.0450518
0.00106000 0.0450366
0.00108000 0.0443423
0.00110000 0.0438616
0.00112000 0.0441210
0.00114000 0.0448000
0.00116000 0.0453799
0.00118000 0.0454180
0.00120000 0.0450289
0.00122000 0.0445940
0.00124000 0.0442584
0.00126000 0.0440676
0.00128000 0.0443575
0.00130000 0.0453341
0.00132000 0.0460055
0.00134000 0.0457308
0.00136000 0.0451739
0.00138000 0.0439456
0.00140000 0.0427859
0.00142000 0.0434725
0.00144000 0.0449450
0.00146000 0.0457308
0.00148000 0.0458910
0.00150000 0.0452425
0.00152000 0.0444949
0.00154000 0.0446475
0.00156000 0.0453265
0.00158000 0.0454562
0.00160000 0.0447466
0.00162000 0.0441515
0.00164000 0.0441134
0.00166000 0.0444567
0.00168000 0.0448458
0.00170000 0.0447314
0.00172000 0.0445559
0.00174000 0.0449984
0.00176000 0.0456393
0.00178000 0.0459292
0.00180000 0.0453570
0.00182000 0.0442202
0.00184000 0.0436862
0.00186000 0.0441439
0.00188000 0.0450213
0.00190000 0.0457156
0.00192000 0.0456316
0.00194000 0.0449526
0.00196000 0.0443652
0.00198000 0.0443118
0.00200000 0.0445025
0.00202000 0.0448382
0.00204000 0.0451281
0.00206000 0.0450976
0.00208000 0.0451205
0.00210000 0.0452578
0.00212000 0.0451968
0.00214000 0.0452120
0.00216000 0.0449450
0.00218000 0.0443652
0.00220000 0.0442965
0.00222000 0.0444109
0.00224000 0.0444415
0.00226000 0.0448153
0.00228000 0.0453417
0.00230000 0.0455859
0.00232000 0.0454333
0.00234000 0.0450289
0.00236000 0.0446627
0.00238000 0.0446932
0.00240000 0.0452425
0.00242000 0.0454791
0.00244000 0.0447009
0.00246000 0.0439074
0.00248000 0.0438769
0.00250000 0.0446398
0.00252000 0.0456622
0.00254000 0.0462573
0.00256000 0.0458453
0.00258000 0.0450366
0.00260000 0.0444949
0.00262000 0.0443041
0.00264000 0.0445712
0.00266000 0.0450823
0.00268000 0.0454562
0.00270000 0.0454791
0.00272000 0.0450976
0.00274000 0.0446246
0.00276000 0.0444491
0.00278000 0.0447085
0.00280000 0.0450594
0.00282000 0.0451968
0.00284000 0.0450976
0.00286000 0.0450442
0.00288000 0.0451052
0.00290000 0.0452044
0.00292000 0.0452502
0.00294000 0.0452273
0.00296000 0.0450747
0.00298000 0.0447848
0.00300000 0.0446093
0.00302000 0.0446093
0.00304000 0.0447009
0.00306000 0.0449831
0.00308000 0.0451815
0.00310000 0.0452197
0.00312000 0.0454180
0.00314000 0.0456469
0.00316000 0.0456164
0.00318000 0.0452425
0.00320000 0.0446780
0.00322000 0.0443575
0.00324000 0.0446093
0.00326000 0.0450518
0.00328000 0.0453341
0.00330000 0.0454028
0.00332000 0.0452502
0.00334000 0.0452044
0.00336000 0.0452654
0.00338000 0.0451434
0.00340000 0.0449755
0.00342000 0.0449755
0.00344000 0.0450976
0.00346000 0.0452578
0.00348000 0.0453188
0.00350000 0.0451510
0.00352000 0.0450671
0.00354000 0.0451281
0.00356000 0.0451815
0.00358000 0.0452578
0.00360000 0.0452425
0.00362000 0.0449831
0.00364000 0.0448229
0.00366000 0.0449145
0.00368000 0.0451357
0.00370000 0.0455096
0.00372000 0.0457766
0.00374000 0.0455554
0.00376000 0.0450747
0.00378000 0.0447924
0.00380000 0.0448763
0.00382000 0.0449755
0.00384000 0.0449984
0.00386000 0.0451205
0.00388000 0.0453341
0.00390000 0.0454791
0.00392000 0.0456011
0.00394000 0.0455706
0.00396000 0.0453188
0.00398000 0.0450976
0.00400000 0.0449984
0.00402000 0.0449603
0.00404000 0.0450289
0.00406000 0.0451815
0.00408000 0.0453112
0.00410000 0.0453341
0.00412000 0.0452502
0.00414000 0.0451739
0.00416000 0.0451815
0.00418000 0.0452807
0.00420000 0.0453417
0.00422000 0.0453570
0.00424000 0.0453036
0.00426000 0.0450976
0.00428000 0.0450747
0.00430000 0.0451968
0.00432000 0.0453265
0.00434000 0.0453951
0.00436000 0.0454562
0.00438000 0.0453341
0.00440000 0.0451357
0.00442000 0.0449603
0.00444000 0.0450366
0.00446000 0.0452807
0.00448000 0.0454562
0.00450000 0.0455554
0.00452000 0.0456088
0.00454000 0.0454943
0.00456000 0.0453036
0.00458000 0.0451357
0.00460000 0.0449526
0.00462000 0.0449603
0.00464000 0.0452044
0.00466000 0.0454714
0.00468000 0.0456088
0.00470000 0.0456011
0.00472000 0.0454791
0.00474000 0.0453646
0.00476000 0.0452578
0.00478000 0.0451815
0.00480000 0.0452120
0.00482000 0.0453646
0.00484000 0.0453417
0.00486000 0.0451891
0.00488000 0.0451357
0.00490000 0.0452731
0.00492000 0.0455477
0.00494000 0.0457766
0.00496000 0.0457613
0.00498000 0.0454257
0.00500000 0.0450518
