#id      FTS_PINT
#Xmin    -0.005
#Xmax    0.005
#Xstep   2e-05
#Tdwell  0.4
#time    1493819250
#Nscans  501
#data    501
-0.00500000 0.0406115
-0.00498000 0.0406115
-0.00496000 0.0408938
-0.00494000 0.0413134
-0.00492000 0.0415728
-0.00490000 0.0414889
-0.00488000 0.0411990
-0.00486000 0.0409625
-0.00484000 0.0409701
-0.00482000 0.0410998
-0.00480000 0.0410922
-0.00478000 0.0409853
-0.00476000 0.0410464
-0.00474000 0.0411379
-0.00472000 0.0410464
-0.00470000 0.0410388
-0.00468000 0.0412219
-0.00466000 0.0413897
-0.00464000 0.0415118
-0.00462000 0.0414126
-0.00460000 0.0410464
-0.00458000 0.0407488
-0.00456000 0.0408175
-0.00454000 0.0410082
-0.00452000 0.0411379
-0.00450000 0.0412600
-0.00448000 0.0413134
-0.00446000 0.0413668
-0.00444000 0.0414355
-0.00442000 0.0412142
-0.00440000 0.0409853
-0.00438000 0.0409014
-0.00436000 0.0409701
-0.00434000 0.0412524
-0.00432000 0.0415652
-0.00430000 0.0414660
-0.00428000 0.0411074
-0.00426000 0.0409091
-0.00424000 0.0409091
-0.00422000 0.0411303
-0.00420000 0.0414050
-0.00418000 0.0414355
-0.00416000 0.0413058
-0.00414000 0.0411608
-0.00412000 0.0410769
-0.00410000 0.0412600
-0.00408000 0.0415194
-0.00406000 0.0414050
-0.00404000 0.0411761
-0.00402000 0.0411303
-0.00400000 0.0410311
-0.00398000 0.0410311
-0.00396000 0.0411761
-0.00394000 0.0412066
-0.00392000 0.0412676
-0.00390000 0.0415118
-0.00388000 0.0415652
-0.00386000 0.0413592
-0.00384000 0.0412219
-0.00382000 0.0413363
-0.00380000 0.0413668
-0.00378000 0.0411303
-0.00376000 0.0409014
-0.00374000 0.0408251
-0.00372000 0.0411532
-0.00370000 0.0416644
-0.00368000 0.0418246
-0.00366000 0.0415804
-0.00364000 0.0411150
-0.00362000 0.0408785
-0.00360000 0.0410082
-0.00358000 0.0414050
-0.00356000 0.0416262
-0.00354000 0.0414736
-0.00352000 0.0412219
-0.00350000 0.0410464
-0.00348000 0.0410616
-0.00346000 0.0413516
-0.00344000 0.0415881
-0.00342000 0.0414965
-0.00340000 0.0412524
-0.00338000 0.0411379
-0.00336000 0.0411837
-0.00334000 0.0412982
-0.00332000 0.0414355
-0.00330000 0.0415881
-0.00328000 0.0416033
-0.00326000 0.0414889
-0.00324000 0.0414202
-0.00322000 0.0410998
-0.00320000 0.0407717
-0.00318000 0.0409472
-0.00316000 0.0414202
-0.00314000 0.0417407
-0.00312000 0.0417025
-0.00310000 0.0415041
-0.00308000 0.0414050
-0.00306000 0.0415194
-0.00304000 0.0416720
-0.00302000 0.0414431
-0.00300000 0.0409243
-0.00298000 0.0407183
-0.00296000 0.0409625
-0.00294000 0.0414584
-0.00292000 0.0418704
-0.00290000 0.0418093
-0.00288000 0.0414965
-0.00286000 0.0412524
-0.00284000 0.0411913
-0.00282000 0.0413821
-0.00280000 0.0417407
-0.00278000 0.0418551
-0.00276000 0.0416033
-0.00274000 0.0410845
-0.00272000 0.0407717
-0.00270000 0.0410540
-0.00268000 0.0416415
-0.00266000 0.0419390
-0.00264000 0.0418780
-0.00262000 0.0414965
-0.00260000 0.0408328
-0.00258000 0.0406649
-0.00256000 0.0411227
-0.00254000 0.0416873
-0.00252000 0.0423357
-0.00250000 0.0426180
-0.00248000 0.0417941
-0.00246000 0.0407183
-0.00244000 0.0404437
-0.00242000 0.0409472
-0.00240000 0.0417864
-0.00238000 0.0420229
-0.00236000 0.0415423
-0.00234000 0.0409396
-0.00232000 0.0409930
-0.00230000 0.0416873
-0.00228000 0.0420992
-0.00226000 0.0420916
-0.00224000 0.0418246
-0.00222000 0.0413744
-0.00220000 0.0411532
-0.00218000 0.0411303
-0.00216000 0.0411379
-0.00214000 0.0413210
-0.00212000 0.0415347
-0.00210000 0.0416415
-0.00208000 0.0416567
-0.00206000 0.0416262
-0.00204000 0.0416262
-0.00202000 0.0416567
-0.00200000 0.0417483
-0.00198000 0.0415652
-0.00196000 0.0412600
-0.00194000 0.0412447
-0.00192000 0.0413744
-0.00190000 0.0417101
-0.00188000 0.0419848
-0.00186000 0.0418627
-0.00184000 0.0414126
-0.00182000 0.0408251
-0.00180000 0.0407717
-0.00178000 0.0413363
-0.00176000 0.0419848
-0.00174000 0.0423052
-0.00172000 0.0420458
-0.00170000 0.0417864
-0.00168000 0.0416262
-0.00166000 0.0415118
-0.00164000 0.0415957
-0.00162000 0.0410235
-0.00160000 0.0406115
-0.00158000 0.0414813
-0.00156000 0.0418475
-0.00154000 0.0417330
-0.00152000 0.0418627
-0.00150000 0.0413439
-0.00148000 0.0412753
-0.00146000 0.0421374
-0.00144000 0.0424731
-0.00142000 0.0421298
-0.00140000 0.0413287
-0.00138000 0.0406344
-0.00136000 0.0405581
-0.00134000 0.0410540
-0.00132000 0.0420229
-0.00130000 0.0424426
-0.00128000 0.0422213
-0.00126000 0.0418093
-0.00124000 0.0411685
-0.00122000 0.0411379
-0.00120000 0.0414202
-0.00118000 0.0414355
-0.00116000 0.0419695
-0.00114000 0.0424349
-0.00112000 0.0419848
-0.00110000 0.0413821
-0.00108000 0.0411532
-0.00106000 0.0409777
-0.00104000 0.0413363
-0.00102000 0.0419314
-0.001000000 0.0418856
-0.000980000 0.0415118
-0.000960000 0.0412295
-0.000940000 0.0416567
-0.000920000 0.0423815
-0.000900000 0.0422671
-0.000880000 0.0420611
-0.000860000 0.0418780
-0.000840000 0.0413134
-0.000820000 0.0412982
-0.000800000 0.0416644
-0.000780000 0.0410082
-0.000760000 0.0404742
-0.000740000 0.0413287
-0.000720000 0.0423281
-0.000700000 0.0429766
-0.000680000 0.0430605
-0.000660000 0.0415194
-0.000640000 0.0403292
-0.000620000 0.0412142
-0.000600000 0.0423510
-0.000580000 0.0425417
-0.000560000 0.0417559
-0.000540000 0.0404513
-0.000520000 0.0405581
-0.000500000 0.0418017
-0.000480000 0.0425417
-0.000460000 0.0429385
-0.000440000 0.0425494
-0.000420000 0.0415118
-0.000400000 0.0411379
-0.000380000 0.0412219
-0.000360000 0.0412982
-0.000340000 0.0418169
-0.000320000 0.0425189
-0.000300000 0.0418475
-0.000280000 0.0402529
-0.000260000 0.0401156
-0.000240000 0.0417635
-0.000220000 0.0445101
-0.000200000 0.0457842
-0.000180000 0.0431674
-0.000160000 0.0422442
-0.000140000 0.0424731
-0.000120000 0.0398562
-1.00000e-04 0.0370181
-8.00000e-05 0.0324938
-6.00000e-05 0.0302125
-4.00000e-05 0.0397418
-2.00000e-05 0.0531847
0.00000 0.0586932
2.00000e-05 0.0538256
4.00000e-05 0.0431216
6.00000e-05 0.0342791
8.00000e-05 0.0335696
1.00000e-04 0.0372927
0.000120000 0.0396883
0.000140000 0.0402911
0.000160000 0.0410540
0.000180000 0.0430071
0.000200000 0.0453112
0.000220000 0.0449145
0.000240000 0.0416110
0.000260000 0.0398333
0.000280000 0.0406649
0.000300000 0.0419238
0.000320000 0.0431902
0.000340000 0.0428927
0.000360000 0.0412982
0.000380000 0.0407946
0.000400000 0.0406497
0.000420000 0.0413210
0.000440000 0.0429156
0.000460000 0.0434878
0.000480000 0.0431750
0.000500000 0.0420001
0.000520000 0.0401690
0.000540000 0.0401995
0.000560000 0.0422671
0.000580000 0.0430911
0.000600000 0.0420306
0.000620000 0.0411913
0.000640000 0.0405962
0.000660000 0.0411990
0.000680000 0.0434496
0.000700000 0.0437014
0.000720000 0.0423892
0.000740000 0.0417330
0.000760000 0.0411761
0.000780000 0.0410540
0.000800000 0.0414507
0.000820000 0.0414660
0.000840000 0.0415194
0.000860000 0.0418246
0.000880000 0.0423052
0.000900000 0.0429690
0.000920000 0.0426180
0.000940000 0.0416186
0.000960000 0.0417254
0.000980000 0.0419390
0.001000000 0.0420611
0.00102000 0.0424807
0.00104000 0.0418780
0.00106000 0.0411913
0.00108000 0.0413516
0.00110000 0.0416796
0.00112000 0.0423434
0.00114000 0.0426257
0.00116000 0.0422976
0.00118000 0.0420229
0.00120000 0.0416873
0.00122000 0.0414355
0.00124000 0.0413973
0.00126000 0.0419695
0.00128000 0.0429537
0.00130000 0.0429842
0.00132000 0.0424960
0.00134000 0.0419390
0.00136000 0.0405962
0.00138000 0.0403674
0.00140000 0.0418398
0.00142000 0.0425723
0.00144000 0.0429385
0.00146000 0.0427325
0.00148000 0.0417864
0.00150000 0.0415652
0.00152000 0.0422213
0.00154000 0.0427248
0.00156000 0.0423052
0.00158000 0.0415194
0.00160000 0.0414050
0.00162000 0.0415041
0.00164000 0.0419161
0.00166000 0.0421603
0.00168000 0.0417712
0.00170000 0.0419848
0.00172000 0.0425723
0.00174000 0.0429003
0.00176000 0.0427783
0.00178000 0.0418627
0.00180000 0.0411074
0.00182000 0.0412982
0.00184000 0.0420001
0.00186000 0.0426257
0.00188000 0.0427325
0.00190000 0.0422442
0.00192000 0.0416491
0.00194000 0.0416110
0.00196000 0.0418093
0.00198000 0.0419848
0.00200000 0.0423357
0.00202000 0.0423052
0.00204000 0.0420840
0.00206000 0.0422900
0.00208000 0.0423357
0.00210000 0.0423586
0.00212000 0.0424578
0.00214000 0.0419466
0.00216000 0.0415194
0.00218000 0.0416033
0.00220000 0.0415804
0.00222000 0.0417864
0.00224000 0.0423281
0.00226000 0.0428927
0.00228000 0.0429080
0.00230000 0.0422747
0.00232000 0.0417407
0.00234000 0.0415652
0.00236000 0.0421984
0.00238000 0.0430529
0.00240000 0.0426028
0.00242000 0.0413897
0.00244000 0.0408862
0.00246000 0.0412905
0.00248000 0.0422595
0.00250000 0.0432818
0.00252000 0.0433581
0.00254000 0.0425417
0.00256000 0.0418475
0.00258000 0.0414965
0.00260000 0.0415270
0.00262000 0.0421298
0.00264000 0.0426714
0.00266000 0.0427935
0.00268000 0.0424502
0.00270000 0.0417864
0.00272000 0.0415118
0.00274000 0.0418246
0.00276000 0.0422366
0.00278000 0.0425265
0.00280000 0.0424654
0.00282000 0.0421832
0.00284000 0.0420840
0.00286000 0.0421679
0.00288000 0.0423357
0.00290000 0.0426714
0.00292000 0.0427706
0.00294000 0.0423205
0.00296000 0.0417635
0.00298000 0.0415957
0.00300000 0.0417864
0.00302000 0.0421450
0.00304000 0.0424273
0.00306000 0.0423357
0.00308000 0.0422366
0.00310000 0.0425417
0.00312000 0.0428317
0.00314000 0.0427325
0.00316000 0.0422518
0.00318000 0.0417483
0.00320000 0.0416873
0.00322000 0.0419695
0.00324000 0.0422213
0.00326000 0.0424960
0.00328000 0.0424502
0.00330000 0.0423739
0.00332000 0.0425341
0.00334000 0.0424044
0.00336000 0.0421069
0.00338000 0.0420382
0.00340000 0.0421526
0.00342000 0.0423663
0.00344000 0.0425036
0.00346000 0.0423739
0.00348000 0.0421832
0.00350000 0.0421450
0.00352000 0.0422595
0.00354000 0.0423510
0.00356000 0.0424654
0.00358000 0.0423892
0.00360000 0.0420611
0.00362000 0.0419619
0.00364000 0.0421526
0.00366000 0.0424807
0.00368000 0.0428317
0.00370000 0.0428164
0.00372000 0.0424044
0.00374000 0.0420001
0.00376000 0.0420458
0.00378000 0.0422213
0.00380000 0.0421069
0.00382000 0.0420916
0.00384000 0.0424044
0.00386000 0.0425875
0.00388000 0.0426257
0.00390000 0.0427020
0.00392000 0.0424883
0.00394000 0.0422595
0.00396000 0.0421908
0.00398000 0.0420916
0.00400000 0.0420611
0.00402000 0.0421984
0.00404000 0.0423892
0.00406000 0.0425265
0.00408000 0.0424807
0.00410000 0.0423205
0.00412000 0.0422518
0.00414000 0.0423510
0.00416000 0.0424578
0.00418000 0.0426104
0.00420000 0.0425799
0.00422000 0.0422900
0.00424000 0.0421145
0.00426000 0.0422060
0.00428000 0.0424502
0.00430000 0.0426180
0.00432000 0.0426562
0.00434000 0.0425036
0.00436000 0.0422366
0.00438000 0.0420687
0.00440000 0.0421298
0.00442000 0.0423892
0.00444000 0.0426409
0.00446000 0.0426791
0.00448000 0.0426180
0.00450000 0.0426257
0.00452000 0.0424654
0.00454000 0.0422518
0.00456000 0.0421221
0.00458000 0.0420458
0.00460000 0.0422137
0.00462000 0.0425341
0.00464000 0.0426714
0.00466000 0.0427477
0.00468000 0.0427325
0.00470000 0.0426180
0.00472000 0.0424731
0.00474000 0.0422976
0.00476000 0.0422137
0.00478000 0.0424044
0.00480000 0.0425646
0.00482000 0.0424273
0.00484000 0.0422976
0.00486000 0.0424044
0.00488000 0.0426409
0.00490000 0.0428317
0.00492000 0.0429003
0.00494000 0.0426867
0.00496000 0.0422137
0.00498000 0.0420001
0.00500000 0.0422976
