#id      FTS_PINT
#Xmin    -0.005
#Xmax    0.005
#Xstep   2e-05
#Tdwell  0.4
#time    1494414168
#Nscans  501
#data    501
-0.00500000 0.0468371
-0.00498000 0.0470889
-0.00496000 0.0474780
-0.00494000 0.0478137
-0.00492000 0.0478442
-0.00490000 0.0475848
-0.00488000 0.0472643
-0.00486000 0.0471575
-0.00484000 0.0472720
-0.00482000 0.0473788
-0.00480000 0.0472949
-0.00478000 0.0472796
-0.00476000 0.0473711
-0.00474000 0.0473177
-0.00472000 0.0472949
-0.00470000 0.0475085
-0.00468000 0.0476687
-0.00466000 0.0477755
-0.00464000 0.0477145
-0.00462000 0.0473711
-0.00460000 0.0470278
-0.00458000 0.0470202
-0.00456000 0.0472109
-0.00454000 0.0474017
-0.00452000 0.0475543
-0.00450000 0.0476077
-0.00448000 0.0476458
-0.00446000 0.0476916
-0.00444000 0.0475695
-0.00442000 0.0472872
-0.00440000 0.0471804
-0.00438000 0.0472414
-0.00436000 0.0474856
-0.00434000 0.0478213
-0.00432000 0.0478060
-0.00430000 0.0474322
-0.00428000 0.0471423
-0.00426000 0.0471117
-0.00424000 0.0473559
-0.00422000 0.0476840
-0.00420000 0.0477908
-0.00418000 0.0476840
-0.00416000 0.0474780
-0.00414000 0.0473177
-0.00412000 0.0474322
-0.00410000 0.0477755
-0.00408000 0.0478213
-0.00406000 0.0475237
-0.00404000 0.0473406
-0.00402000 0.0472643
-0.00400000 0.0471880
-0.00398000 0.0473711
-0.00396000 0.0475237
-0.00394000 0.0475619
-0.00392000 0.0477831
-0.00390000 0.0479510
-0.00388000 0.0478060
-0.00386000 0.0475695
-0.00384000 0.0475771
-0.00382000 0.0476229
-0.00380000 0.0473864
-0.00378000 0.0471499
-0.00376000 0.0470736
-0.00374000 0.0473330
-0.00372000 0.0478976
-0.00370000 0.0481875
-0.00368000 0.0479891
-0.00366000 0.0475466
-0.00364000 0.0472033
-0.00362000 0.0472033
-0.00360000 0.0476153
-0.00358000 0.0479891
-0.00356000 0.0478976
-0.00354000 0.0475695
-0.00352000 0.0473254
-0.00350000 0.0472796
-0.00348000 0.0475466
-0.00346000 0.0479052
-0.00344000 0.0478976
-0.00342000 0.0476000
-0.00340000 0.0473711
-0.00338000 0.0473940
-0.00336000 0.0475314
-0.00334000 0.0477221
-0.00332000 0.0478976
-0.00330000 0.0479739
-0.00328000 0.0478289
-0.00326000 0.0477145
-0.00324000 0.0474627
-0.00322000 0.0471499
-0.00320000 0.0471423
-0.00318000 0.0475543
-0.00316000 0.0480044
-0.00314000 0.0480425
-0.00312000 0.0478137
-0.00310000 0.0476916
-0.00308000 0.0477602
-0.00306000 0.0480044
-0.00304000 0.0479815
-0.00302000 0.0473711
-0.00300000 0.0469286
-0.00298000 0.0470660
-0.00296000 0.0475619
-0.00294000 0.0481036
-0.00292000 0.0482790
-0.00290000 0.0479357
-0.00288000 0.0476382
-0.00286000 0.0475085
-0.00284000 0.0476153
-0.00282000 0.0479128
-0.00280000 0.0481112
-0.00278000 0.0479281
-0.00276000 0.0474780
-0.00274000 0.0470583
-0.00272000 0.0471804
-0.00270000 0.0478823
-0.00268000 0.0484316
-0.00266000 0.0484087
-0.00264000 0.0479052
-0.00262000 0.0470889
-0.00260000 0.0466082
-0.00258000 0.0471652
-0.00256000 0.0481188
-0.00254000 0.0488589
-0.00252000 0.0491869
-0.00250000 0.0483782
-0.00248000 0.0470278
-0.00246000 0.0465395
-0.00244000 0.0470736
-0.00242000 0.0479510
-0.00240000 0.0483782
-0.00238000 0.0480120
-0.00236000 0.0473177
-0.00234000 0.0472338
-0.00232000 0.0478976
-0.00230000 0.0484316
-0.00228000 0.0484545
-0.00226000 0.0482333
-0.00224000 0.0477602
-0.00222000 0.0474398
-0.00220000 0.0474246
-0.00218000 0.0474017
-0.00216000 0.0475771
-0.00214000 0.0478289
-0.00212000 0.0479586
-0.00210000 0.0479815
-0.00208000 0.0479739
-0.00206000 0.0480044
-0.00204000 0.0479968
-0.00202000 0.0480578
-0.00200000 0.0479815
-0.00198000 0.0476534
-0.00196000 0.0475543
-0.00194000 0.0476305
-0.00192000 0.0479052
-0.00190000 0.0483325
-0.00188000 0.0482638
-0.00186000 0.0478976
-0.00184000 0.0473177
-0.00182000 0.0469820
-0.00180000 0.0474093
-0.00178000 0.0482180
-0.00176000 0.0486987
-0.00174000 0.0485842
-0.00172000 0.0482714
-0.00170000 0.0480044
-0.00168000 0.0478442
-0.00166000 0.0479357
-0.00164000 0.0475619
-0.00162000 0.0469286
-0.00160000 0.0474474
-0.00158000 0.0481646
-0.00156000 0.0481570
-0.00154000 0.0482104
-0.00152000 0.0478594
-0.00150000 0.0474856
-0.00148000 0.0482867
-0.00146000 0.0489657
-0.00144000 0.0488284
-0.00142000 0.0480578
-0.00140000 0.0470583
-0.00138000 0.0467913
-0.00136000 0.0471728
-0.00134000 0.0480807
-0.00132000 0.0488284
-0.00130000 0.0486758
-0.00128000 0.0482409
-0.00126000 0.0476992
-0.00124000 0.0474246
-0.00122000 0.0477450
-0.00120000 0.0478671
-0.00118000 0.0481417
-0.00116000 0.0487444
-0.00114000 0.0486529
-0.00112000 0.0479586
-0.00110000 0.0476000
-0.00108000 0.0474474
-0.00106000 0.0474780
-0.00104000 0.0480731
-0.00102000 0.0482943
-0.001000000 0.0479739
-0.000980000 0.0476687
-0.000960000 0.0478518
-0.000940000 0.0486147
-0.000920000 0.0487978
-0.000900000 0.0485613
-0.000880000 0.0484545
-0.000860000 0.0478671
-0.000840000 0.0474856
-0.000820000 0.0477755
-0.000800000 0.0474703
-0.000780000 0.0468447
-0.000760000 0.0474322
-0.000740000 0.0486147
-0.000720000 0.0492709
-0.000700000 0.0495379
-0.000680000 0.0484774
-0.000660000 0.0469210
-0.000640000 0.0472491
-0.000620000 0.0485308
-0.000600000 0.0488284
-0.000580000 0.0482180
-0.000560000 0.0470126
-0.000540000 0.0466921
-0.000520000 0.0479434
-0.000500000 0.0489581
-0.000480000 0.0493548
-0.000460000 0.0491946
-0.000440000 0.0481112
-0.000420000 0.0474398
-0.000400000 0.0475848
-0.000380000 0.0476916
-0.000360000 0.0480502
-0.000340000 0.0486376
-0.000320000 0.0482638
-0.000300000 0.0467379
-0.000280000 0.0462573
-0.000260000 0.0478060
-0.000240000 0.0506289
-0.000220000 0.0529711
-0.000200000 0.0512240
-0.000180000 0.0491641
-0.000160000 0.0491335
-0.000140000 0.0459826
-0.000120000 0.0420229
-1.00000e-04 0.0382159
-8.00000e-05 0.0352480
-6.00000e-05 0.0432360
-4.00000e-05 0.0587008
-2.00000e-05 0.0673146
0.00000 0.0639043
2.00000e-05 0.0528338
4.00000e-05 0.0415576
6.00000e-05 0.0380480
8.00000e-05 0.0416873
1.00000e-04 0.0452960
0.000120000 0.0465624
0.000140000 0.0472643
0.000160000 0.0489504
0.000180000 0.0512774
0.000200000 0.0518649
0.000220000 0.0490801
0.000240000 0.0464404
0.000260000 0.0467761
0.000280000 0.0480578
0.000300000 0.0492785
0.000320000 0.0495837
0.000340000 0.0479968
0.000360000 0.0470278
0.000380000 0.0470355
0.000400000 0.0474551
0.000420000 0.0490191
0.000440000 0.0500185
0.000460000 0.0498049
0.000480000 0.0488970
0.000500000 0.0471346
0.000520000 0.0463564
0.000540000 0.0479205
0.000560000 0.0494845
0.000580000 0.0487597
0.000600000 0.0476916
0.000620000 0.0471880
0.000640000 0.0472338
0.000660000 0.0492175
0.000680000 0.0505145
0.000700000 0.0493853
0.000720000 0.0483706
0.000740000 0.0477984
0.000760000 0.0473559
0.000780000 0.0476153
0.000800000 0.0478137
0.000820000 0.0478442
0.000840000 0.0481341
0.000860000 0.0485232
0.000880000 0.0491412
0.000900000 0.0492709
0.000920000 0.0483630
0.000940000 0.0480731
0.000960000 0.0484850
0.000980000 0.0484545
0.001000000 0.0487597
0.00102000 0.0485232
0.00104000 0.0475848
0.00106000 0.0475695
0.00108000 0.0479815
0.00110000 0.0485842
0.00112000 0.0491488
0.00114000 0.0488970
0.00116000 0.0484850
0.00118000 0.0481493
0.00120000 0.0478365
0.00122000 0.0478060
0.00124000 0.0482028
0.00126000 0.0491641
0.00128000 0.0496066
0.00130000 0.0490496
0.00132000 0.0484927
0.00134000 0.0473788
0.00136000 0.0465701
0.00138000 0.0477908
0.00140000 0.0490038
0.00142000 0.0492709
0.00144000 0.0493243
0.00146000 0.0485537
0.00148000 0.0479510
0.00150000 0.0484850
0.00152000 0.0491564
0.00154000 0.0490115
0.00156000 0.0481570
0.00158000 0.0478289
0.00160000 0.0477908
0.00162000 0.0480883
0.00164000 0.0485690
0.00166000 0.0483553
0.00168000 0.0483630
0.00170000 0.0489657
0.00172000 0.0492709
0.00174000 0.0492404
0.00176000 0.0484850
0.00178000 0.0475848
0.00180000 0.0476382
0.00182000 0.0483401
0.00184000 0.0490115
0.00186000 0.0492556
0.00188000 0.0488513
0.00190000 0.0481646
0.00192000 0.0479510
0.00194000 0.0482028
0.00196000 0.0484011
0.00198000 0.0487139
0.00200000 0.0488513
0.00202000 0.0485537
0.00204000 0.0486147
0.00206000 0.0488055
0.00208000 0.0488436
0.00210000 0.0490038
0.00212000 0.0486681
0.00214000 0.0480044
0.00216000 0.0478976
0.00218000 0.0479739
0.00220000 0.0481112
0.00222000 0.0486300
0.00224000 0.0492861
0.00226000 0.0494921
0.00228000 0.0489504
0.00230000 0.0483019
0.00232000 0.0480807
0.00234000 0.0484011
0.00236000 0.0493701
0.00238000 0.0493548
0.00240000 0.0480883
0.00242000 0.0472186
0.00244000 0.0474932
0.00246000 0.0484316
0.00248000 0.0495913
0.00250000 0.0500567
0.00252000 0.0493243
0.00254000 0.0483782
0.00256000 0.0478976
0.00258000 0.0478442
0.00260000 0.0483706
0.00262000 0.0491564
0.00264000 0.0494006
0.00266000 0.0491335
0.00268000 0.0484469
0.00270000 0.0479052
0.00272000 0.0480883
0.00274000 0.0485613
0.00276000 0.0488894
0.00278000 0.0490115
0.00280000 0.0487597
0.00282000 0.0485537
0.00284000 0.0486529
0.00286000 0.0488360
0.00288000 0.0491335
0.00290000 0.0493395
0.00292000 0.0489810
0.00294000 0.0482714
0.00296000 0.0478899
0.00298000 0.0481036
0.00300000 0.0485384
0.00302000 0.0489352
0.00304000 0.0489962
0.00306000 0.0487673
0.00308000 0.0488665
0.00310000 0.0492251
0.00312000 0.0492861
0.00314000 0.0489047
0.00316000 0.0483630
0.00318000 0.0481341
0.00320000 0.0483019
0.00322000 0.0486071
0.00324000 0.0489047
0.00326000 0.0490344
0.00328000 0.0489428
0.00330000 0.0490115
0.00332000 0.0489886
0.00334000 0.0486910
0.00336000 0.0485079
0.00338000 0.0485919
0.00340000 0.0487978
0.00342000 0.0489581
0.00344000 0.0489123
0.00346000 0.0486910
0.00348000 0.0485690
0.00350000 0.0487139
0.00352000 0.0488818
0.00354000 0.0489810
0.00356000 0.0489504
0.00358000 0.0486376
0.00360000 0.0484393
0.00362000 0.0486071
0.00364000 0.0489504
0.00366000 0.0492556
0.00368000 0.0493777
0.00370000 0.0490344
0.00372000 0.0485537
0.00374000 0.0484393
0.00376000 0.0486376
0.00378000 0.0485919
0.00380000 0.0484774
0.00382000 0.0487673
0.00384000 0.0491183
0.00386000 0.0492251
0.00388000 0.0493319
0.00390000 0.0491488
0.00392000 0.0488436
0.00394000 0.0487292
0.00396000 0.0486605
0.00398000 0.0485919
0.00400000 0.0486376
0.00402000 0.0487978
0.00404000 0.0490115
0.00406000 0.0490420
0.00408000 0.0488970
0.00410000 0.0487978
0.00412000 0.0488665
0.00414000 0.0490267
0.00416000 0.0491412
0.00418000 0.0491869
0.00420000 0.0489275
0.00422000 0.0486376
0.00424000 0.0486147
0.00426000 0.0488360
0.00428000 0.0490954
0.00430000 0.0492022
0.00432000 0.0490954
0.00434000 0.0488284
0.00436000 0.0485919
0.00438000 0.0486376
0.00440000 0.0488741
0.00442000 0.0491488
0.00444000 0.0493166
0.00446000 0.0491946
0.00448000 0.0491641
0.00450000 0.0490878
0.00452000 0.0488360
0.00454000 0.0487063
0.00456000 0.0486224
0.00458000 0.0486529
0.00460000 0.0489504
0.00462000 0.0491869
0.00464000 0.0492327
0.00466000 0.0492175
0.00468000 0.0491641
0.00470000 0.0490878
0.00472000 0.0489962
0.00474000 0.0488207
0.00476000 0.0488741
0.00478000 0.0490344
0.00480000 0.0489810
0.00482000 0.0488207
0.00484000 0.0488207
0.00486000 0.0490115
0.00488000 0.0492556
0.00490000 0.0494311
0.00492000 0.0493777
0.00494000 0.0490115
0.00496000 0.0486147
0.00498000 0.0487444
0.00500000 0.0491107
